{
  "client_id": "0oaufdcn7XhYgOtHb356",
  "redirect_uri": "com.okta.dev-720586:/callback",
  "scopes": [
    "openid",
    "profile",
    "offline_access"
  ],
  "issuer_uri": "https://dev-720586.okta.com/oauth2/default"
}